%YAML 1.1
%TAG !u! tag:unity3d.com,2011:
--- !u!1001 &2686144493754177693
PrefabInstance:
  m_ObjectHideFlags: 0
  serializedVersion: 2
  m_Modification:
    m_TransformParent: {fileID: 0}
    m_Modifications:
    - target: {fileID: 3643858242491313555, guid: bb423f07f9499f34cb960e7a67ab7929,
        type: 3}
      propertyPath: m_Name
      value: Woman Human Left Leg
      objectReference: {fileID: 0}
    - target: {fileID: 3643858242491313554, guid: bb423f07f9499f34cb960e7a67ab7929,
        type: 3}
      propertyPath: m_LocalPosition.x
      value: 60.08
      objectReference: {fileID: 0}
    - target: {fileID: 3643858242491313554, guid: bb423f07f9499f34cb960e7a67ab7929,
        type: 3}
      propertyPath: m_LocalPosition.y
      value: 5.51
      objectReference: {fileID: 0}
    - target: {fileID: 3643858242491313554, guid: bb423f07f9499f34cb960e7a67ab7929,
        type: 3}
      propertyPath: m_LocalPosition.z
      value: 0
      objectReference: {fileID: 0}
    - target: {fileID: 3643858242491313554, guid: bb423f07f9499f34cb960e7a67ab7929,
        type: 3}
      propertyPath: m_LocalRotation.x
      value: 0
      objectReference: {fileID: 0}
    - target: {fileID: 3643858242491313554, guid: bb423f07f9499f34cb960e7a67ab7929,
        type: 3}
      propertyPath: m_LocalRotation.y
      value: 0
      objectReference: {fileID: 0}
    - target: {fileID: 3643858242491313554, guid: bb423f07f9499f34cb960e7a67ab7929,
        type: 3}
      propertyPath: m_LocalRotation.z
      value: 0
      objectReference: {fileID: 0}
    - target: {fileID: 3643858242491313554, guid: bb423f07f9499f34cb960e7a67ab7929,
        type: 3}
      propertyPath: m_LocalRotation.w
      value: 1
      objectReference: {fileID: 0}
    - target: {fileID: 3643858242491313554, guid: bb423f07f9499f34cb960e7a67ab7929,
        type: 3}
      propertyPath: m_RootOrder
      value: 0
      objectReference: {fileID: 0}
    - target: {fileID: 3643858242491313554, guid: bb423f07f9499f34cb960e7a67ab7929,
        type: 3}
      propertyPath: m_LocalEulerAnglesHint.x
      value: 0
      objectReference: {fileID: 0}
    - target: {fileID: 3643858242491313554, guid: bb423f07f9499f34cb960e7a67ab7929,
        type: 3}
      propertyPath: m_LocalEulerAnglesHint.y
      value: 0
      objectReference: {fileID: 0}
    - target: {fileID: 3643858242491313554, guid: bb423f07f9499f34cb960e7a67ab7929,
        type: 3}
      propertyPath: m_LocalEulerAnglesHint.z
      value: 0
      objectReference: {fileID: 0}
    - target: {fileID: 8136060017087493492, guid: bb423f07f9499f34cb960e7a67ab7929,
        type: 3}
      propertyPath: piece
      value: 3
      objectReference: {fileID: 0}
    m_RemovedComponents: []
  m_SourcePrefab: {fileID: 100100000, guid: bb423f07f9499f34cb960e7a67ab7929, type: 3}
